{
  "name": "assets",
  "description": "Assets for Arc",
  "assets": {
    "shader": [
      "shaders/basic.shader",
      "shaders/screen.shader",
      "shaders/standard.shader",
      "shaders/pbr/brdf.shader",
      "shaders/pbr/irradiance.shader",
      "shaders/pbr/specular.shader",
      "shaders/utils/copy.shader",
      "shaders/utils/cubeconv.shader",
      "shaders/utils/skybox.shader",
      "shaders/effects/ssao.shader",
      "shaders/effects/ssao_blur.shader",
      "shaders/effects/tonemapper.shader"
    ]
  }
}
